{
  "subgroups": {
    "name": "Subgroups",
    "stage": "manage",
    "group": "workspace",
    "label": "Category:Subgroups",
    "feature_labels": [
      "group templates",
      "subgroups"
    ]
  },
  "projects": {
    "name": "Projects",
    "stage": "manage",
    "group": "workspace",
    "label": "Category:Projects",
    "feature_labels": []
  },
  "audit_events": {
    "name": "Audit Events",
    "stage": "manage",
    "group": "compliance",
    "label": "Category:Audit Events",
    "feature_labels": []
  },
  "audit_reports": {
    "name": "Audit Reports",
    "stage": "manage",
    "group": "compliance",
    "label": "Category:Audit Reports",
    "feature_labels": []
  },
  "compliance_management": {
    "name": "Compliance Management",
    "stage": "manage",
    "group": "compliance",
    "label": "Category:Compliance Management",
    "feature_labels": []
  },
  "authentication_and_authorization": {
    "name": "Authentication and Authorization",
    "stage": "manage",
    "group": "authentication_and_authorization",
    "label": "Category:Authentication and Authorization",
    "feature_labels": [
      "2FA",
      "authentication",
      "authorization",
      "ldap",
      "oauth",
      "saml"
    ]
  },
  "users": {
    "name": "Users",
    "stage": "manage",
    "group": "workspace",
    "label": "Category:Users",
    "feature_labels": [
      "user management",
      "user profile",
      "user creation",
      "user settings"
    ]
  },
  "devops_reports": {
    "name": "DevOps Reports",
    "stage": "manage",
    "group": "optimize",
    "label": "Category:DevOps Reports",
    "feature_labels": [
      "convdev",
      "devops score"
    ]
  },
  "importers": {
    "name": "Importers",
    "stage": "manage",
    "group": "import",
    "label": "Category:Importers",
    "feature_labels": [
      "import",
      "project export",
      "project import"
    ]
  },
  "internationalization": {
    "name": "Internationalization",
    "stage": "manage",
    "group": "import",
    "label": "Category:Internationalization",
    "feature_labels": []
  },
  "value_stream_management": {
    "name": "Value Stream Management",
    "stage": "manage",
    "group": "optimize",
    "label": "Category:Value Stream Management",
    "feature_labels": [
      "value stream analytics"
    ]
  },
  "team_planning": {
    "name": "Team Planning",
    "stage": "plan",
    "group": "project_management",
    "label": "Category:Team Planning",
    "feature_labels": [
      "filter bar",
      "issue weight",
      "issues",
      "labels",
      "markdown",
      "milestones",
      "notifications",
      "quick actions",
      "todos",
      "time tracking",
      "boards"
    ]
  },
  "planning_analytics": {
    "name": "Planning Analytics",
    "stage": "plan",
    "group": "project_management",
    "label": "Category:Planning Analytics",
    "feature_labels": []
  },
  "portfolio_management": {
    "name": "Portfolio Management",
    "stage": "plan",
    "group": "product_planning",
    "label": "Category:Portfolio Management",
    "feature_labels": [
      "sub epics",
      "epic boards",
      "roadmaps",
      "epics"
    ]
  },
  "service_desk": {
    "name": "Service Desk",
    "stage": "plan",
    "group": "certify",
    "label": "Category:Service Desk",
    "feature_labels": []
  },
  "requirements_management": {
    "name": "Requirements Management",
    "stage": "plan",
    "group": "certify",
    "label": "Category:Requirements Management",
    "feature_labels": []
  },
  "quality_management": {
    "name": "Quality Management",
    "stage": "plan",
    "group": "certify",
    "label": "Category:Quality Management",
    "feature_labels": []
  },
  "design_management": {
    "name": "Design Management",
    "stage": "plan",
    "group": "product_planning",
    "label": "Category:Design Management",
    "feature_labels": []
  },
  "navigation": {
    "name": "Navigation \u0026 Settings",
    "stage": "ecosystem",
    "group": "foundations",
    "label": "Category:Navigation \u0026 Settings",
    "feature_labels": []
  },
  "source_code_management": {
    "name": "Source Code Management",
    "stage": "create",
    "group": "source_code",
    "label": "Category:Source Code Management",
    "feature_labels": [
      "encoding",
      "forking",
      "lfs",
      "mirror",
      "repository"
    ]
  },
  "code_review": {
    "name": "Code Review",
    "stage": "create",
    "group": "code_review",
    "label": "Category:Code Review",
    "feature_labels": [
      "image diff",
      "diff",
      "approvals",
      "merge requests"
    ]
  },
  "wiki": {
    "name": "Wiki",
    "stage": "create",
    "group": "editor",
    "label": "Category:Wiki",
    "feature_labels": []
  },
  "static_site_editor": {
    "name": "Static Site Editor",
    "stage": "create",
    "group": "editor",
    "label": "Category:Static Site Editor",
    "feature_labels": []
  },
  "gitlab_handbook": {
    "name": "GitLab Handbook",
    "stage": "create",
    "group": null,
    "label": "Category:GitLab Handbook",
    "feature_labels": []
  },
  "gitlab_docs": {
    "name": "GitLab Documentation Site",
    "stage": "ecosystem",
    "group": "foundations",
    "label": "Category:Docs Site",
    "feature_labels": [
      "gitlab docs"
    ]
  },
  "web_ide": {
    "name": "Web IDE",
    "stage": "create",
    "group": "editor",
    "label": "Category:Web IDE",
    "feature_labels": [
      "web edit"
    ]
  },
  "editor_extension": {
    "name": "Editor Extension",
    "stage": "create",
    "group": "code_review",
    "label": "Category:Editor Extension",
    "feature_labels": [
      "VS Code"
    ]
  },
  "live_preview": {
    "name": "Live Preview",
    "stage": "create",
    "group": "editor",
    "label": "Category:Live Preview",
    "feature_labels": []
  },
  "snippets": {
    "name": "Snippets",
    "stage": "create",
    "group": "editor",
    "label": "Category:Snippets",
    "feature_labels": []
  },
  "gitaly": {
    "name": "Gitaly",
    "stage": "create",
    "group": "gitaly",
    "label": "Category:Gitaly",
    "feature_labels": [
      "Gitaly HA",
      "Gitaly Cluster"
    ]
  },
  "integrations": {
    "name": "Integrations",
    "stage": "ecosystem",
    "group": "integrations",
    "label": "Category:Integrations",
    "feature_labels": [
      "Category:Integrations"
    ]
  },
  "design_system": {
    "name": "Design System",
    "stage": "ecosystem",
    "group": "foundations",
    "label": "Category:Design System",
    "feature_labels": [
      "Category:Foundations"
    ]
  },
  "continuous_integration": {
    "name": "Continuous Integration (CI)",
    "stage": "verify",
    "group": "pipeline_execution",
    "label": "Category:Continuous Integration",
    "feature_labels": [
      "ci::usage",
      "ci::processing",
      "ci::permissions",
      "ci::api-interactions",
      "ci::notifications",
      "ci::metrics",
      "ci::merge-request"
    ]
  },
  "continuous_integration_scaling": {
    "name": "Continuous Integration Scaling (CI Scaling)",
    "stage": "verify",
    "group": "pipeline_execution",
    "label": "Category:Continuous Integration Scaling",
    "feature_labels": [
      "ci::scaling"
    ]
  },
  "pipeline_authoring": {
    "name": "Pipeline Authoring",
    "stage": "verify",
    "group": "pipeline_authoring",
    "label": "Category:Pipeline Authoring",
    "feature_labels": [
      "ci::persistence",
      "ci::variables",
      "ci::rules",
      "ci::integrations",
      "ci::bridge-pipelines",
      "ci::dag",
      "ci::pipeline-graphs"
    ]
  },
  "runner": {
    "name": "GitLab Runner",
    "stage": "verify",
    "group": "runner",
    "label": "Category:Runner",
    "feature_labels": []
  },
  "runner_saas": {
    "name": "GitLab Runner SaaS",
    "stage": "verify",
    "group": "runner",
    "label": "Category:Runner SaaS",
    "feature_labels": []
  },
  "runner_fleet": {
    "name": "Runner Fleet",
    "stage": "verify",
    "group": "runner",
    "label": "Category:Runner Fleet",
    "feature_labels": []
  },
  "jenkins_importer": {
    "name": "Jenkins Importer",
    "stage": "verify",
    "group": "pipeline_authoring",
    "label": "Category:Jenkins Importer",
    "feature_labels": []
  },
  "code_testing": {
    "name": "Code Testing and Coverage",
    "stage": "verify",
    "group": "testing",
    "label": "Category:Code Testing and Coverage",
    "feature_labels": [
      "testing::code testing",
      "testing::coverage",
      "testing::accessibility"
    ]
  },
  "build_artifacts": {
    "name": "Build Artifacts",
    "stage": "verify",
    "group": "testing",
    "label": "Category:Build Artifacts",
    "feature_labels": []
  },
  "performance_testing": {
    "name": "Performance Testing",
    "stage": "verify",
    "group": "testing",
    "label": "Category:Performance Testing",
    "feature_labels": [
      "testing::browser performance",
      "testing::load performance"
    ]
  },
  "merge_trains": {
    "name": "Merge Trains",
    "stage": "verify",
    "group": "pipeline_execution",
    "label": "Category:Merge Trains",
    "feature_labels": []
  },
  "review_apps": {
    "name": "Review Apps",
    "stage": "verify",
    "group": "testing",
    "label": "Category:Review Apps",
    "feature_labels": [
      "testing::review apps",
      "testing::visual review tool",
      "testing::usability"
    ]
  },
  "package_registry": {
    "name": "Package Registry",
    "stage": "package",
    "group": "package",
    "label": "Category:Package Registry",
    "feature_labels": []
  },
  "container_registry": {
    "name": "Container Registry",
    "stage": "package",
    "group": "package",
    "label": "Category:Container Registry",
    "feature_labels": []
  },
  "helm_chart_registry": {
    "name": "Helm Chart Registry",
    "stage": "package",
    "group": "package",
    "label": "Category:Helm Chart Registry",
    "feature_labels": []
  },
  "dependency_proxy": {
    "name": "Dependency Proxy",
    "stage": "package",
    "group": "package",
    "label": "Category:Dependency Proxy",
    "feature_labels": []
  },
  "dependency_firewall": {
    "name": "Dependency Firewall",
    "stage": "package",
    "group": "package",
    "label": "Category:Dependency Firewall",
    "feature_labels": []
  },
  "git_lfs": {
    "name": "Git LFS",
    "stage": "package",
    "group": "package",
    "label": "Category:Git LFS",
    "feature_labels": []
  },
  "static_application_security_testing": {
    "name": "SAST",
    "stage": "secure",
    "group": "static_analysis",
    "label": "Category:SAST",
    "feature_labels": []
  },
  "secret_detection": {
    "name": "Secret Detection",
    "stage": "secure",
    "group": "static_analysis",
    "label": "group::static analysis",
    "feature_labels": []
  },
  "code_quality": {
    "name": "Code Quality",
    "stage": "secure",
    "group": "static_analysis",
    "label": "Category:Code Quality",
    "feature_labels": []
  },
  "dynamic_application_security_testing": {
    "name": "DAST",
    "stage": "secure",
    "group": "dynamic_analysis",
    "label": "Category:DAST",
    "feature_labels": []
  },
  "interactive_application_security_testing": {
    "name": "IAST",
    "stage": "secure",
    "group": "dynamic_analysis",
    "label": "Category:IAST",
    "feature_labels": []
  },
  "api_security": {
    "name": "API Security",
    "stage": "secure",
    "group": "dynamic_analysis",
    "label": "Category:API Security",
    "feature_labels": []
  },
  "fuzz_testing": {
    "name": "Fuzz Testing",
    "stage": "secure",
    "group": "dynamic_analysis",
    "label": "category::fuzz testing",
    "feature_labels": []
  },
  "dependency_scanning": {
    "name": "Dependency Scanning",
    "stage": "secure",
    "group": "composition_analysis",
    "label": "Category:Dependency Scanning",
    "feature_labels": [
      "dependency list",
      "security reports integration"
    ]
  },
  "license_compliance": {
    "name": "License Compliance",
    "stage": "secure",
    "group": "composition_analysis",
    "label": "Category:License Compliance",
    "feature_labels": []
  },
  "vulnerability_database": {
    "name": "Vulnerability Database",
    "stage": "secure",
    "group": "vulnerability_research",
    "label": "Category:Vulnerability Database",
    "feature_labels": []
  },
  "security_benchmarking": {
    "name": "Security Benchmarking",
    "stage": "secure",
    "group": "vulnerability_research",
    "label": "group::vulnerability research",
    "feature_labels": []
  },
  "attack_emulation": {
    "name": "Attack Emulation",
    "stage": "secure",
    "group": "dynamic_analysis",
    "label": "Category:Attack Emulation",
    "feature_labels": []
  },
  "container_scanning": {
    "name": "Container Scanning",
    "stage": "protect",
    "group": "container_security",
    "label": "Category:Container Scanning",
    "feature_labels": []
  },
  "security_orchestration": {
    "name": "Security Orchestration",
    "stage": "protect",
    "group": "container_security",
    "label": "Category:Security Orchestration",
    "feature_labels": []
  },
  "container_host_security": {
    "name": "Container Host Security",
    "stage": "protect",
    "group": "container_security",
    "label": "Category:Container Host Security",
    "feature_labels": []
  },
  "vulnerability_management": {
    "name": "Vulnerability Management",
    "stage": "secure",
    "group": "threat_insights",
    "label": "group::threat insights",
    "feature_labels": [
      "MR security reports",
      "pipeline security reports"
    ]
  },
  "container_network_security": {
    "name": "Container Network Security",
    "stage": "protect",
    "group": "container_security",
    "label": "Category:Container Network Security",
    "feature_labels": []
  },
  "continuous_delivery": {
    "name": "Continuous Delivery",
    "stage": "release",
    "group": "release",
    "label": "Category:Continuous Delivery",
    "feature_labels": [
      "deploy freeze",
      "deploy keys"
    ]
  },
  "pages": {
    "name": "Pages",
    "stage": "release",
    "group": "release",
    "label": "Category:Pages",
    "feature_labels": []
  },
  "advanced_deployments": {
    "name": "Advanced Deployments",
    "stage": "release",
    "group": "release",
    "label": "Category:Advanced Deployments",
    "feature_labels": []
  },
  "feature_flags": {
    "name": "Feature Flags",
    "stage": "release",
    "group": "release",
    "label": "Category:Feature Flags",
    "feature_labels": []
  },
  "release_evidence": {
    "name": "Release Evidence",
    "stage": "release",
    "group": "release",
    "label": "Category:Release Evidence",
    "feature_labels": []
  },
  "release_orchestration": {
    "name": "Release Orchestration",
    "stage": "release",
    "group": "release",
    "label": "Category:Release Orchestration",
    "feature_labels": []
  },
  "environment_management": {
    "name": "Environment Management",
    "stage": "release",
    "group": "release",
    "label": "Category:Environment Management",
    "feature_labels": []
  },
  "auto_devops": {
    "name": "Auto DevOps",
    "stage": "configure",
    "group": "configure",
    "label": "Category:Auto DevOps",
    "feature_labels": []
  },
  "kubernetes_management": {
    "name": "Kubernetes Management",
    "stage": "configure",
    "group": "configure",
    "label": "Category:Kubernetes Management",
    "feature_labels": []
  },
  "deployment_management": {
    "name": "Deployment Management",
    "stage": "configure",
    "group": "configure",
    "label": "Category:Deployment Management",
    "feature_labels": []
  },
  "secrets_management": {
    "name": "Secrets Management",
    "stage": "configure",
    "group": "configure",
    "label": "Category:Secrets Management",
    "feature_labels": [
      "ci::variables"
    ]
  },
  "chatops": {
    "name": "ChatOps",
    "stage": "configure",
    "group": "configure",
    "label": "Category:ChatOps",
    "feature_labels": []
  },
  "infrastructure_as_code": {
    "name": "Infrastructure as Code",
    "stage": "configure",
    "group": "configure",
    "label": "Category:Infrastructure as Code",
    "feature_labels": []
  },
  "cluster_cost_management": {
    "name": "Cluster Cost Management",
    "stage": "configure",
    "group": "configure",
    "label": "Category:Cluster Cost Management",
    "feature_labels": []
  },
  "runbooks": {
    "name": "Runbooks",
    "stage": "monitor",
    "group": "monitor",
    "label": "Category:Runbooks",
    "feature_labels": []
  },
  "metrics": {
    "name": "Metrics",
    "stage": "monitor",
    "group": "monitor",
    "label": "Category:Metrics",
    "feature_labels": []
  },
  "incident_management": {
    "name": "Incident Management",
    "stage": "monitor",
    "group": "monitor",
    "label": "Category:Incident Management",
    "feature_labels": []
  },
  "on_call_schedule_management": {
    "name": "On-call Schedule Management",
    "stage": "monitor",
    "group": "monitor",
    "label": "Category:On-call Schedule Management",
    "feature_labels": []
  },
  "logging": {
    "name": "Logging",
    "stage": "monitor",
    "group": "monitor",
    "label": "Category:Logging",
    "feature_labels": []
  },
  "tracing": {
    "name": "Tracing",
    "stage": "monitor",
    "group": "monitor",
    "label": "Category:Tracing",
    "feature_labels": []
  },
  "self_monitoring": {
    "name": "GitLab Self-Monitoring",
    "stage": "monitor",
    "group": "monitor",
    "label": "Category:GitLab Self-Monitoring",
    "feature_labels": []
  },
  "error_tracking": {
    "name": "Error Tracking",
    "stage": "monitor",
    "group": "monitor",
    "label": "Category:Error Tracking",
    "feature_labels": []
  },
  "synthetic_monitoring": {
    "name": "Synthetic Monitoring",
    "stage": "monitor",
    "group": "monitor",
    "label": "Category:Synthetic Monitoring",
    "feature_labels": []
  },
  "global_search": {
    "name": "Global Search",
    "stage": "enablement",
    "group": "global_search",
    "label": "Category:Global Search",
    "feature_labels": [
      "elasticsearch"
    ]
  },
  "code_search": {
    "name": "Code Search",
    "stage": "enablement",
    "group": null,
    "label": "Category:Code Search",
    "feature_labels": [
      "elasticsearch"
    ]
  },
  "omnibus_package": {
    "name": "Omnibus Package",
    "stage": "enablement",
    "group": "distribution_deploy",
    "label": "Category:Omnibus Package",
    "feature_labels": []
  },
  "cloud_native_installation": {
    "name": "Cloud Native Installation",
    "stage": "enablement",
    "group": "distribution_deploy",
    "label": "Category:Cloud Native Installation",
    "feature_labels": []
  },
  "build": {
    "name": "Build",
    "stage": "enablement",
    "group": "distribution_build",
    "label": "Category:Build",
    "feature_labels": []
  },
  "backup_restore": {
    "name": "Backup/Restore of GitLab instances",
    "stage": "enablement",
    "group": "geo",
    "label": "Category:Backup/Restore of GitLab instances",
    "feature_labels": []
  },
  "geo_replication": {
    "name": "Geo-replication",
    "stage": "enablement",
    "group": "geo",
    "label": "Category:Geo-replication",
    "feature_labels": [
      "Geo Administration",
      "Geo GA",
      "Geo Next Gen",
      "Geo Performance",
      "Geo Replication/Sync",
      "Geo Verification/Accuracy",
      "Geo : Automatic Verification",
      "Geo : Kubernetes",
      "Geo : Replication Lag Warning",
      "Geo : Selective Sync"
    ]
  },
  "disaster_recovery": {
    "name": "Disaster Recovery",
    "stage": "enablement",
    "group": "geo",
    "label": "Category:Disaster Recovery",
    "feature_labels": [
      "Geo DR"
    ]
  },
  "database": {
    "name": "Database",
    "stage": "enablement",
    "group": "database",
    "label": "Category:Database",
    "feature_labels": []
  },
  "sharding": {
    "name": "Sharding",
    "stage": "enablement",
    "group": "sharding",
    "label": "Category:Sharding",
    "feature_labels": []
  },
  "application_performance": {
    "name": "Application Performance",
    "stage": "enablement",
    "group": "application_performance",
    "label": "Category:Application Performance",
    "feature_labels": []
  },
  "redis": {
    "name": "Redis",
    "stage": "enablement",
    "group": "application_performance",
    "label": "Category:Redis",
    "feature_labels": []
  },
  "horse": {
    "name": "Horse",
    "stage": "platforms",
    "group": "horse",
    "label": "Category:Horse",
    "feature_labels": []
  },
  "delivery": {
    "name": "Delivery",
    "stage": "platforms",
    "group": "delivery",
    "label": "Category:Delivery",
    "feature_labels": []
  },
  "scalability": {
    "name": "Scalability",
    "stage": "platforms",
    "group": "scalability",
    "label": "Category:Scalability",
    "feature_labels": []
  },
  "error_budgets": {
    "name": "Error Budgets",
    "stage": "platforms",
    "group": "scalability",
    "label": "Category:Error Budgets",
    "feature_labels": []
  },
  "experimentation_activation": {
    "name": "Activation Experiment",
    "stage": "growth",
    "group": "activation",
    "label": "Category:Activation Experiment",
    "feature_labels": []
  },
  "experimentation_adoption": {
    "name": "Adoption Experiment",
    "stage": "growth",
    "group": "adoption",
    "label": "Category:Adoption Experiment",
    "feature_labels": []
  },
  "experimentation_conversion": {
    "name": "Conversion Experiment",
    "stage": "growth",
    "group": "conversion",
    "label": "Category:Conversion Experiment",
    "feature_labels": []
  },
  "experimentation_expansion": {
    "name": "Expansion Experiment",
    "stage": "growth",
    "group": "expansion",
    "label": "Category:Expansion Experiment",
    "feature_labels": []
  },
  "onboarding": {
    "name": "Onboarding",
    "stage": "growth",
    "group": "activation",
    "label": "Category:Onboarding",
    "feature_labels": []
  },
  "product_analytics": {
    "name": "Product Analytics",
    "stage": "monitor",
    "group": null,
    "label": "Category:Product Analytics",
    "feature_labels": []
  },
  "usage_ping": {
    "name": "Usage Ping",
    "stage": "growth",
    "group": "product_intelligence",
    "label": "Category:Usage Ping",
    "feature_labels": []
  },
  "service_ping": {
    "name": "Service Ping",
    "stage": "growth",
    "group": "product_intelligence",
    "label": "Category:Service Ping",
    "feature_labels": []
  },
  "privacy_control_center": {
    "name": "Privacy Control Center",
    "stage": "fulfillment",
    "group": null,
    "label": "Category:Privacy Control Center",
    "feature_labels": []
  },
  "purchase": {
    "name": "Purchase",
    "stage": "fulfillment",
    "group": "purchase",
    "label": "Category:Purchase",
    "feature_labels": []
  },
  "license": {
    "name": "License",
    "stage": "fulfillment",
    "group": "license",
    "label": "Category:License",
    "feature_labels": []
  },
  "utilization": {
    "name": "Utilization",
    "stage": "fulfillment",
    "group": "utilization",
    "label": "Category:Utilization",
    "feature_labels": []
  },
  "mlops": {
    "name": "MLOps",
    "stage": "ModelOps",
    "group": "mlops",
    "label": "group::machine learning",
    "feature_labels": []
  },
  "dataops": {
    "name": "DataOps",
    "stage": "ModelOps",
    "group": "dataops",
    "label": "group::machine learning",
    "feature_labels": []
  },
  "insider_threat": {
    "name": "Insider Threat",
    "stage": "ModelOps",
    "group": "anti_abuse",
    "label": "group::machine learning",
    "feature_labels": []
  },
  "instance_resiliency": {
    "name": "Instance Resiliency",
    "stage": "ModelOps",
    "group": "anti_abuse",
    "label": "Category:Pipeline Abuse Prevention",
    "feature_labels": [
      "pipeline abuse prevention"
    ]
  },
  "workflow_automation": {
    "name": "Workflow Automation",
    "stage": "ModelOps",
    "group": "applied_ml",
    "label": "group::machine learning",
    "feature_labels": []
  },
  "intel_code_security": {
    "name": "Intelligent Code Security",
    "stage": "ModelOps",
    "group": "applied_ml",
    "label": "group::machine learning",
    "feature_labels": []
  },
  "mobile_signing_deployment": {
    "name": "Mobile App Signing \u0026 Deployment Management",
    "stage": "mobile",
    "group": "moble_devops",
    "label": "group::MobileDevOps",
    "feature_labels": []
  },
  "five_minute_production_app": {
    "name": "5 Minute Production App",
    "stage": "deploy",
    "group": "5-min-app",
    "label": "group::5MinProduction",
    "feature_labels": []
  }
}
